<id>Rademeyer:bi2330</id>
<publication_type>article</publication_type>
<authors separator=";">Rademeyer, M.; Heerden, F. R. van; Merwe, M. M. van der</authors>
<doi>10.1107/S1600536808042402</doi>
<issue>1</issue>
<journal>Acta Crystallographica Section E</journal>
<month>Jan</month>
<pages>o196</pages>
<title>Dehydrobrachylaenolide: an eudesmane-type sesquiterpene lactone</title>
<url>http://dx.doi.org/10.1107/S1600536808042402</url>
<volume>65</volume>
<year>2009</year>

