<id>Frnc20101465</id>
<publication_type>article</publication_type>
<abstract>Three new diborane(4) derivatives, 1,2-bis(2,4,6-trimethylanilide)-1,2-bis(dimethyamido)diborane(4) (1), 1,2-bis(2,4,6-trimethylanilide)-1,2-bis(duryl)diborane(4) (2) and 1,2-bis(anilide)-1,2-bis(duryl)diborane(4) (3), have been synthesized and characterized by means of elemental analysis, IR, 1H, 13C and 11B NMR spectroscopy. Additionally, the structures of compounds 1 and 2 have been determined by the single crystal X-ray diffraction technique. The compounds 1 and 2 crystallize in the monoclinic P21/c space group. All of the compounds were found to be air stable.</abstract>
<authors separator=";">Erkan Fırıncı; H. Can Söyleyici; Emrah Giziroğlu; Ersin Temel; Orhan Büyükgüngör; Yüksel Şahin</authors>
<doi>10.1016/j.poly.2010.01.031</doi>
<issue>5</issue>
<journal>Polyhedron</journal>
<pages>1465 - 1468</pages>
<title>Synthesis and characterization of new air stable primary amido substituted diborane(4) derivatives</title>
<url>http://www.sciencedirect.com/science/article/pii/S0277538710000641</url>
<volume>29</volume>
<year>2010</year>

