<id>Turowska-Tyrk:bk5019</id>
<publication_type>article</publication_type>
<authors separator=";">Turowska-Tyrk, Ilona; Trzop, Elżbieta; Scheffer, John R.; Chen, Shuang</authors>
<doi>10.1107/S0108768105034014</doi>
<issue>1</issue>
<journal>Acta Crystallographica Section B</journal>
<month>Feb</month>
<pages>128-134</pages>
<title>Monitoring structural transformations in crystals. 8. Monitoring molecules and a reaction center during a solid-state Yang photocyclization</title>
<url>http://dx.doi.org/10.1107/S0108768105034014</url>
<volume>62</volume>
<year>2006</year>

