<id>Besli:bm0049</id>
<publication_type>article</publication_type>
<authors separator=";">Beşli, Serap; Coles, Simon J.; Davies, David B.; Hursthouse, Michael B.; Kılıç, Adem; Mayer, Thomas A.; Shaw, Robert A.; Uslu, Aylin</authors>
<doi>10.1107/S0108768102003816</doi>
<issue>3 Part 2</issue>
<journal>Acta Crystallographica Section B</journal>
<month>Jun</month>
<pages>545-552</pages>
<title>Structural investigations of phosphorus–nitrogen compounds. 4. Steric and electronic effects in dibenzylamino derivatives of hexachlorocyclotriphosphazatriene and 4,4,6,6-tetrachloro-2,2-diphenylcyclotriphosphazatriene</title>
<url>http://dx.doi.org/10.1107/S0108768102003816</url>
<volume>58</volume>
<year>2002</year>

