<id>Blerk:bq2163</id>
<publication_type>article</publication_type>
<authors separator=";">Blerk, Charmaine van; Holzapfel, Cedric W.</authors>
<doi>10.1107/S1600536809040719</doi>
<issue>11</issue>
<journal>Acta Crystallographica Section E</journal>
<month>Nov</month>
<pages>m1342</pages>
<title><i>trans</i>-Dichloridobis[tris(2-methoxyphenyl)phosphine]palladium(II)</title>
<url>http://dx.doi.org/10.1107/S1600536809040719</url>
<volume>65</volume>
<year>2009</year>

