<id>AAsbergDahlborg:br1261</id>
<publication_type>article</publication_type>
<authors separator=";">Åsberg Dahlborg, Magnus B.; Svensson, Göran; Ouvarova, Tatiana</authors>
<doi>10.1107/S0108270199013864</doi>
<issue>4</issue>
<journal>Acta Crystallographica Section C</journal>
<month>Apr</month>
<pages>397-398</pages>
<title>Mercury(II) tungstate from neutron powder data</title>
<url>http://dx.doi.org/10.1107/S0108270199013864</url>
<volume>56</volume>
<year>2000</year>

