<id>Bryan:by0513</id>
<publication_type>article</publication_type>
<authors separator=";">Bryan, R. F.</authors>
<doi>10.1107/S0108768101014835</doi>
<issue>1</issue>
<journal>Acta Crystallographica Section B</journal>
<month>Feb</month>
<pages>154</pages>
<title><b>Liquid crystals.</b> Edited by Satyendra Kumar. Pp × + 483. Cambridge: Cambridge University Press, 2001. Price {\pounds}70.00. ISBN 0521461324.</title>
<url>http://dx.doi.org/10.1107/S0108768101014835</url>
<volume>58</volume>
<year>2002</year>

