<id>Grazulis</id>
<publication_type>article</publication_type>
<authors separator=";">Saulius Gražulis; Saulius Gražulis; Saulius Gražulis</authors>
<doi>10.1107/S0000000000000000</doi>
<issue>0</issue>
<journal>Acta Crystallographica Section E</journal>
<month>Aug</month>
<pages>o0000</pages>
<title>Šešios žąsys su šešiais žąsyčiais</title>
<url>http://dx.doi.org/10.1107/S000000000000000</url>
<volume>63</volume>
<year>1007</year>

