<id>Eschwege:cv2466</id>
<publication_type>article</publication_type>
<authors separator=";">Eschwege, Karel G. von; Muller, Alfred</authors>
<doi>10.1107/S1600536808039731</doi>
<issue>1</issue>
<journal>Acta Crystallographica Section E</journal>
<month>Jan</month>
<pages>o2</pages>
<title>2,3-Bis(2-methoxyphenyl)tetrazolium-5-thiolate–acetone–dichloromethane (1/0.4/0.1)</title>
<url>http://dx.doi.org/10.1107/S1600536808039731</url>
<volume>65</volume>
<year>2009</year>

