<id>Zinczuk:lh2039</id>
<publication_type>article</publication_type>
<authors separator=";">Zinczuk, Juan; Ruveda, Edmundo A.; Lalancette, Roger A.; Thompson, Hugh W.</authors>
<doi>10.1107/S160053680601405X</doi>
<issue>6</issue>
<journal>Acta Crystallographica Section E</journal>
<month>Jun</month>
<pages>o2120-o2122</pages>
<title>(–)-Isosantonic acid: alteration of the hydrogen-bonding mode by configurational inversion at a single centre in a γ,ε-diketocarboxylic acid</title>
<url>http://dx.doi.org/10.1107/S160053680601405X</url>
<volume>62</volume>
<year>2006</year>

