<id>Eriksen:os1101</id>
<publication_type>article</publication_type>
<authors separator=";">Eriksen, Jakob Østerberg; Hazell, Alan; Jensen, Astrid; Jepsen, Josua; Poulsen, Rasmus Damgaard</authors>
<doi>10.1107/S0108270100001670</doi>
<issue>5</issue>
<journal>Acta Crystallographica Section C</journal>
<month>May</month>
<pages>551-553</pages>
<title>Bimetallic assemblies, [Ni(en)~2~]~3~[<i>M</i>(CN)~6~]~2~·3H~2~O (en = H~2~NCH~2~CH~2~NH~2~; <i>M</i> = Fe, Co)</title>
<url>http://dx.doi.org/10.1107/S0108270100001670</url>
<volume>56</volume>
<year>2000</year>

