<id>Aigouy:pa0295</id>
<publication_type>article</publication_type>
<authors separator=";">Aigouy, T.; Costeseque, P.; Sempere, R.; Senac, T.; Jaud, J.; Anglerot, D.</authors>
<doi>10.1107/S010876819400159X</doi>
<issue>1</issue>
<journal>Acta Crystallographica Section B</journal>
<month>Feb</month>
<pages>55-61</pages>
<title>Caractérisation structurale et évolution thermique de l'acide amino-11-undécanoïque (C~11~H~23~NO~2~.1,5H~2~O)</title>
<url>http://dx.doi.org/10.1107/S010876819400159X</url>
<volume>51</volume>
<year>1995</year>

