<id>Hansson:ry5001</id>
<publication_type>article</publication_type>
<authors separator=";">Hansson, Christian; Carlson, Stefan; Giveen, Deborah; Johansson, Maria; Yong, Shen; Oskarsson, Åke</authors>
<doi>10.1107/S0108768106004629</doi>
<issue>3</issue>
<journal>Acta Crystallographica Section B</journal>
<month>Jun</month>
<pages>474-479</pages>
<title><i>Cis</i>/<i>trans</i> isomers of Pt<i>X</i>~2~<i>L</i>~2~ (<i>X</i> = halogen, <i>L</i> = neutral ligand); the crystal structure of <i>trans</i>-dichlorobis(dimethyl sulfide)platinum(II) and the pressure dependence of its unit-cell dimensions</title>
<url>http://dx.doi.org/10.1107/S0108768106004629</url>
<volume>62</volume>
<year>2006</year>

