<id>Mbarek:wm2221</id>
<publication_type>article</publication_type>
<authors separator=";">Mbarek, Aïcha; Oudahmane, Abdelghani; El-Ghozzi, Malika; Avignant, Daniel</authors>
<doi>10.1107/S1600536809007193</doi>
<issue>4</issue>
<journal>Acta Crystallographica Section E</journal>
<month>Apr</month>
<pages>i22</pages>
<title>An orthorhombic polymorph of the ultraphosphate YP~5~O~14~</title>
<url>http://dx.doi.org/10.1107/S1600536809007193</url>
<volume>65</volume>
<year>2009</year>

